{
    "Datoscliente": [
      {
        "Cedula": "135546255",
        "Apellido": "Valverde",
        "Nombre": "Josue"
      
      
      },
      {
        "Cedula": "131141811",
        "Apellido": "Preciado",
        "Nombre": "Leonardo"
     
      },
      {
        "Cedula": "131141811",
        "Apellido": "Dominic",
        "Nombre": "yurley"
      },
      {
        "Cedula": "131141811",
        "Apellido": "Brayumbi",
        "Nombre": "Miastri"
      },
      {
        "Cedula": "131446855",
        "Apellido": "Sanler",
        "Nombre": "Preciado"
      },
      {
        "Cedula": "134546444",
        "Apellido": "Josue",
        "Nombre": "Calmidran"
      },
      {
        "Cedula": "131546825",
        "Apellido": "Bakerley",
        "Nombre": "Linos"
      },
      {
        "Cedula": "131666826",
        "Apellido": "Millar",
        "Nombre": "Arthurss"
      },
      {
        "Cedula": "1315475825",
        "Apellido": "Kackson",
        "Nombre": "Jackey"
      },
      {
        "Cedula": "137547877",
        "Apellido": "Prado",
        "Nombre": "David"
      }
    ]
  }